@startuml "railigentDevelopmentSequence"
skinparam dpi 300

actor "Entwickler" as dev
database "GitLab" as gitlab
database Jenkins
database Nexus
database AWS

dev --> gitlab: erstelle Anwendungs\nRepo
'dev <-- gitlab:

dev --> Jenkins: erstelle Build Job
'dev <-- Jenkins:

Jenkins --> Jenkins: baue Artefakt
activate Jenkins
Jenkins --> Nexus: speichere gebautes\nArtefakt
deactivate Jenkins

dev --> gitlab: erstelle Deployment\nKonfiguration
'dev <-- gitlab:

dev --> Jenkins: erstelle Deployment\nJob

Jenkins --> Nexus: hole Artefakt
Jenkins --> AWS: ausrollen in\nCloud Umgebung

@enduml
