@startuml siemensStructure
skinparam componentStyle uml2
skinparam linetype polyline
skinparam Linetype ortho
skinparam dpi 300
top to bottom direction
'left to right direction

card "Siemens AG" {
    card "Operating \n Companies" as opsCompanies {
        [Gas and Power] as GaP
        [Smart \n Infrastructure] as smartInfra
        [Digital Industries] as digitalIndustries
    }

    card "Strategic Companies" as strategicCompanies {
        [Siemens Mobility] as mobility <<meine Abteilung>>
        [Siemens Gamesa \n Renewable Energy] as sgre
        [Siemens Healthineers] as health
    }

    card "Service \n Companies" as serviceCompanies {
        [Financial Services] as financialServices
        [Global Business \n Services] as globalBusinessServices
        [Real Estate \n Services] as realEstateServices
    }

    card "Corporate \n Development" as corpDev {
        [Next47]
        [Portfolio \n Companies] as portfolios
        [Supply Chain \n Management] as supplyChainManagement
        [Internet of \n Things] as IoT
    }
}

GaP --[hidden]> smartInfra
smartInfra --[hidden]> digitalIndustries

mobility --[hidden]> sgre
sgre --[hidden]> health

financialServices --[hidden]> globalBusinessServices
globalBusinessServices --[hidden]> realEstateServices

Next47 --[hidden]> portfolios
portfolios --[hidden]> supplyChainManagement
supplyChainManagement --[hidden]> IoT

skinparam component {
    borderColor<<meine Abteilung>> Blue
}

@enduml
